Place,Name,BirthDate,Sex,BirthYear,Age,State,Equipment,Division,BodyweightKg,WeightClassKg,Squat1Kg,Squat2Kg,Squat3Kg,Best3SquatKg,Bench1Kg,Bench2Kg,Bench3Kg,Best3BenchKg,Deadlift1Kg,Deadlift2Kg,Deadlift3Kg,Best3DeadliftKg,TotalKg,Event,Tested
1,Heather Grimes,,F,2000,22,AL,Raw,Juniors 20-23,50.6,52,125,132.5,-137.5,132.5,67.5,70,-72.5,70,147.5,157.5,160,160,362.5,SBD,Yes
1,Victoria Estrada,,F,2000,22,NV,Raw,Juniors 20-23,65.9,67.5,125,132.5,137.5,137.5,57.5,-65,65,65,137.5,150,-157.5,150,352.5,SBD,Yes
1,Imee Rose Dichoso,,F,2000,23,NV,Raw,Juniors 20-23,74.9,75,167.5,-175,-180,167.5,82.5,87.5,-92.5,87.5,165,172.5,-182.5,172.5,427.5,SBD,Yes
2,Vanessa Vasquez,,F,2002,21,AZ,Raw,Juniors 20-23,71.7,75,95,105,115,115,45,50,52.5,52.5,110,122.5,137.5,137.5,305,SBD,Yes
1,Amanda Moreno,,F,1978,44,NY,Raw,Masters 40-44,50.5,52,100,105,-110,105,65,-67.5,-67.5,65,145,150,-155,150,320,SBD,Yes
1,Molly Hendryx,,F,1983,40,OR,Raw,Masters 40-44,55.7,56,137.5,-140,140,140,67.5,72.5,-75,72.5,182.5,190,-195,190,402.5,SBD,Yes
2,Rina Shapiro,,F,1982,41,OR,Raw,Masters 40-44,54.6,56,97.5,102.5,107.5,107.5,55,57.5,-60,57.5,125,130,140,140,305,SBD,Yes
1,Shay Donald,,F,1981,42,MA,Raw,Masters 40-44,67.8,75,102.5,107.5,-112.5,107.5,65,67.5,70,70,130,137.5,142.5,142.5,320,SBD,Yes
DQ,Rebecca Gonzales,,F,1981,41,CA,Raw,Masters 40-44,69.2,75,127.5,130,-137.5,130,-77.5,-77.5,-77.5,,,,,,,SBD,Yes
1,Jennifer Darling,,F,1974,49,OR,Raw,Masters 45-49,65.3,67.5,110,115,-122.5,115,50,55,57.5,57.5,127.5,137.5,-145,137.5,310,SBD,Yes
1,Jodie Hein,,F,1971,52,NJ,Raw,Masters 50-54,55,56,90,95,107.5,107.5,62.5,-65,-65,62.5,120,130,136,136,306,SBD,Yes
1,Tobey Hasegawa,,F,1973,50,MA,Raw,Masters 50-54,70.4,75,110,117.5,120,120,70,75,-77.5,75,147.5,155,162.5,162.5,357.5,SBD,Yes
1,Charsell Kincsid,,F,1967,56,MI,Raw,Masters 55-59,66.2,67.5,115,-125,-125,115,50,57.5,-60,57.5,132.5,150,-152.5,150,322.5,SBD,Yes
2,Francisca Schwedhelm,,F,1964,59,CA,Raw,Masters 55-59,64.4,67.5,100,102.5,112.5,112.5,45,47.5,50,50,125,135,137.5,137.5,300,SBD,Yes
3,Miriam Lawrence,,F,1967,56,VT,Raw,Masters 55-59,62.6,67.5,85,90,-95,90,50,55,-57.5,55,97.5,105,-107.5,105,250,SBD,Yes
4,Leticia Navarro,,F,1968,55,AZ,Raw,Masters 55-59,67.2,67.5,72.5,82.5,-85,82.5,42.5,-45,45,45,85,95,-102.5,95,222.5,SBD,Yes
1,Patricia A Donald,,F,1961,61,MA,Raw,Masters 60-64,69.1,75,97.5,-105,-105,97.5,62.5,65,-67.5,65,122.5,130,-137.5,130,292.5,SBD,Yes
1,Ashley Wisner,,F,1997,25,MD,Raw,Open,51.1,52,-105,107.5,110,110,-72.5,72.5,-75,72.5,180,-182.5,183,183,365.5,SBD,Yes
2,Heather Grimes,,F,2000,22,AL,Raw,Open,50.6,52,125,132.5,-137.5,132.5,67.5,70,-72.5,70,147.5,157.5,160,160,362.5,SBD,Yes
3,Amanda Moreno,,F,1978,44,NY,Raw,Open,50.5,52,100,105,-110,105,65,-67.5,-67.5,65,145,150,-155,150,320,SBD,Yes
1,Molly Hendryx,,F,1983,40,OR,Raw,Open,55.7,56,137.5,-140,140,140,67.5,72.5,-75,72.5,182.5,190,-195,190,402.5,SBD,Yes
2,Kristin Estes,,F,1988,34,ID,Raw,Open,55.2,56,140,145,147.5,147.5,90,-95,-95,90,150,157.5,162.5,162.5,400,SBD,Yes
3,Rachel Zenk,,F,1996,26,WA,Raw,Open,53.1,56,115,120,127.5,127.5,72.5,77.5,-80,77.5,130,137.5,145,145,350,SBD,Yes
4,Brianna Schmidt,,F,1990,33,NY,Raw,Open,54.6,56,120,-125,-125,120,72.5,75,77.5,77.5,137.5,-145,-145,137.5,335,SBD,Yes
5,Tina Andersen,,F,1987,36,MA,Raw,Open,53.9,56,107.5,112.5,115,115,60,-62.5,62.5,62.5,145,152.5,-157.5,152.5,330,SBD,Yes
6,Paulene Do,,F,1989,34,OR,Raw,Open,54.7,56,120,125,132.5,132.5,50,52.5,55,55,125,130,137.5,137.5,325,SBD,Yes
7,Rina Shapiro,,F,1982,41,OR,Raw,Open,54.6,56,97.5,102.5,107.5,107.5,55,57.5,-60,57.5,125,130,140,140,305,SBD,Yes
8,Desi Hermann,,F,1996,27,OR,Raw,Open,55.5,56,107.5,-115,117.5,117.5,45,47.5,50,50,117.5,125,132.5,132.5,300,SBD,Yes
DQ,Sarah Kahan,,F,1992,31,PA,Raw,Open,55.7,56,-110,-110,-110,,65,-67.5,-67.5,65,150,-155,-157.5,150,,SBD,Yes
1,Stephanie Cornejo,,F,1992,30,CA,Raw,Open,58.8,60,142.5,152.5,157.5,157.5,75,77.5,80,80,160,170,177.5,177.5,415,SBD,Yes
2,Lynette Hrzich,,F,1996,27,IL,Raw,Open,58.9,60,117.5,125,-132.5,125,72.5,77.5,-82.5,77.5,147.5,160,167.5,167.5,370,SBD,Yes
3,Regina Sowell,,F,1984,39,TX,Raw,Open,59.9,60,125,-132.5,140,140,75,82.5,85,85,137.5,145,-152.5,145,370,SBD,Yes
4,Katie Osman,,F,1991,32,AZ,Raw,Open,57.1,60,130,137.5,-145,137.5,57.5,60,62.5,62.5,155,167.5,-172.5,167.5,367.5,SBD,Yes
5,Sierra Gribble,,F,1993,30,MO,Raw,Open,59.1,60,135,-142.5,-142.5,135,-70,70,-75.5,70,137.5,142.5,-150,142.5,347.5,SBD,Yes
6,Emily Lindell,,F,1990,33,OR,Raw,Open,58.9,60,122.5,130,135,135,67.5,72.5,-75,72.5,125,132.5,-145,132.5,340,SBD,Yes
7,Lizette Magana,,F,1996,27,AZ,Raw,Open,59.8,60,112.5,-122.5,122.5,122.5,55,57.5,-60,57.5,120,130,-142.5,130,310,SBD,Yes
8,Alyssa Fukumae,,F,1992,30,AZ,Raw,Open,59.8,60,100,107.5,-112.5,107.5,67.5,-70,-70,67.5,117.5,125,-135,125,300,SBD,Yes
9,Dianel McLoughlin,,F,1990,33,FL,Raw,Open,57.5,60,82.5,87.5,92.5,92.5,57.5,-60,-60,57.5,120,127.5,-137.5,127.5,277.5,SBD,Yes
10,Gabrielle Bryk,,F,1994,29,OH,Raw,Open,59.15,60,80,85,87.5,87.5,50,55,-60,55,95,102.5,117.5,117.5,260,SBD,Yes
11,Cristalyn Cabanero,,F,1989,33,NV,Raw,Open,59.5,60,60,-67.5,70,70,42.5,50,57.5,57.5,92.5,105,122.5,122.5,250,SBD,Yes
1,Olivia Crusoe,,F,1993,30,WA,Raw,Open,65.8,67.5,-175,175,185,185,85,90,-92.5,90,187.5,197.5,200,200,475,SBD,Yes
2,Kendra Farber,,F,1987,36,OR,Raw,Open,66.7,67.5,145,152.5,-157.5,152.5,95,97.5,-100,97.5,225,-235,-235,225,475,SBD,Yes
3,Luna Bruno,,F,1990,32,OR,Raw,Open,66.6,67.5,145,152.5,157.5,157.5,102.5,105,-110,105,165,175,-182.5,175,437.5,SBD,Yes
4,Amber Verrill,,F,1994,29,MA,Raw,Open,63.5,67.5,137.5,145,152.5,152.5,77.5,82.5,,82.5,157.5,165,172.5,172.5,407.5,SBD,Yes
5,Jordan Buentello,,F,1990,33,TX,Raw,Open,66.8,67.5,-152.5,160,-165,160,72.5,77.5,85,85,147.5,157.5,-165,157.5,402.5,SBD,Yes
6,Kelly Merlo,,F,1996,27,MA,Raw,Open,64.8,67.5,145,-155,155,155,77.5,82.5,-85,82.5,137.5,152.5,-157.5,152.5,390,SBD,Yes
7,Sammy Laddusaw,,F,1999,24,ND,Raw,Open,64.1,67.5,132.5,142.5,-150,142.5,72.5,-77.5,-77.5,72.5,137.5,150,152.5,152.5,367.5,SBD,Yes
8,Miranda Good,,F,1992,31,IA,Raw,Open,60.7,67.5,125,135,140,140,60,62.5,65,65,150,-155,-158.5,150,355,SBD,Yes
9,Cassandra Beack,,F,1993,30,MN,Raw,Open,63.1,67.5,-117.5,127.5,-137.5,127.5,65,67.5,-72.5,67.5,142.5,147.5,150,150,345,SBD,Yes
10,Adelaide Navickas,,F,1988,35,AZ,Raw,Open,66.3,67.5,95,105,112.5,112.5,57.5,62.5,-67.5,62.5,127.5,-132.5,-132.5,127.5,302.5,SBD,Yes
11,Maria Gomez-Rico,,F,1997,25,NV,Raw,Open,66.7,67.5,95,107.5,112.5,112.5,42.5,47.5,52.5,52.5,102.5,122.5,135,135,300,SBD,Yes
12,Belen Martinez-Caro Aguado,,F,1993,30,OR,Raw,Open,65.6,67.5,102.5,110,112.5,112.5,50,52.5,-55,52.5,125,132.5,-137.5,132.5,297.5,SBD,Yes
13,Stevie Nemazee,,F,1987,35,,Raw,Open,65.8,67.5,90,95,100,100,50,52.5,-55,52.5,115,122.5,-127.5,122.5,275,SBD,Yes
14,Kiara Cortez,,F,1995,28,NV,Raw,Open,66.5,67.5,85,-92.5,92.5,92.5,45,50,-57.5,50,102.5,110,-117.5,110,252.5,SBD,Yes
1,Sharayah Johnson,,F,1990,33,OR,Raw,Open,74.3,75,-180,185,192.5,192.5,112.5,117.5,-118.5,117.5,195,205,-210,205,515,SBD,Yes
2,Amanda LeMarble,,F,1992,31,TX,Raw,Open,72.5,75,-162.5,172.5,-180,172.5,80,-85,85,85,200,210,215,215,472.5,SBD,Yes
3,Rosanna Arias,,F,1997,25,KS,Raw,Open,74.9,75,152.5,162.5,170,170,85,90,91,91,165,172.5,-177.5,172.5,433.5,SBD,Yes
4,Alexandra Johnson #3,,F,1990,33,WA,Raw,Open,74.2,75,-150,157.5,162.5,162.5,85,87.5,90,90,162.5,170,175,175,427.5,SBD,Yes
5,Imee Rose Dichoso,,F,2000,23,NV,Raw,Open,74.9,75,167.5,-175,-180,167.5,82.5,87.5,-92.5,87.5,165,172.5,-182.5,172.5,427.5,SBD,Yes
6,Sarah Evans,,F,1994,29,RI,Raw,Open,73.1,75,-160,160,-172.5,160,92.5,-97.5,,92.5,157.5,170,-182.5,170,422.5,SBD,Yes
7,Emily Schmidt,,F,1994,29,CA,Raw,Open,70.4,75,147.5,157.5,160,160,80,-85,-85,80,175,-180,-180,175,415,SBD,Yes
8,Wynonah Filla,,F,1996,26,MN,Raw,Open,73.4,75,132.5,142.5,147.5,147.5,92.5,97.5,100,100,147.5,155,160,160,407.5,SBD,Yes
9,Ashley Hamby,,F,1990,33,OR,Raw,Open,73.3,75,122.5,127.5,132.5,132.5,67.5,70,72.5,72.5,155,165,175,175,380,SBD,Yes
10,Ileana Guzman,,F,1986,37,CT,Raw,Open,73.8,75,127.5,130,135,135,67.5,-70,-70,67.5,142.5,147.5,152.5,152.5,355,SBD,Yes
11,Katie Van Bibber,,F,1994,29,CA,Raw,Open,73.5,75,105,112.5,117.5,117.5,60,65,67.5,67.5,142.5,152.5,165,165,350,SBD,Yes
12,Devin Murray #2,,F,1993,30,OH,Raw,Open,73.5,75,122.5,130,132.5,132.5,60,62.5,-65,62.5,137.5,-147.5,-147.5,137.5,332.5,SBD,Yes
13,Alexandra L Gibson,,F,1999,24,NV,Raw,Open,72.3,75,100,107.5,112.5,112.5,65,-70,70,70,120,127.5,135,135,317.5,SBD,Yes
14,Kristin Hungerford,,F,1990,33,OR,Raw,Open,72.2,75,97.5,105,112.5,112.5,57.5,-62.5,-62.5,57.5,132.5,140,-150,140,310,SBD,Yes
15,Audrey Mullins,,F,1998,25,WA,Raw,Open,71.6,75,62.5,65,70,70,37.5,40,42.5,42.5,85,90,95,95,207.5,SBD,Yes
DQ,Precious Andrew,,F,1986,37,NM,Raw,Open,69.2,75,-155,-165,,,,,,,,,,,,SBD,Yes
1,Regina Sowell,,F,1984,39,TX,Raw,S35-39,59.9,60,125,-132.5,140,140,75,82.5,85,85,137.5,145,-152.5,145,370,SBD,Yes
1,Brittney Lopez,,F,1986,37,AZ,Raw,S35-39,66.1,67.5,120,130,137.5,137.5,57.5,-60,,57.5,125,140,150,150,345,SBD,Yes
2,Katelyn Barbaria,,F,1988,35,OR,Raw,S35-39,65.7,67.5,110,115,-120,115,55,57.5,60,60,135,142.5,-147.5,142.5,317.5,SBD,Yes
3,Adelaide Navickas,,F,1988,35,AZ,Raw,S35-39,66.3,67.5,95,105,112.5,112.5,57.5,62.5,-67.5,62.5,127.5,-132.5,-132.5,127.5,302.5,SBD,Yes
4,Kelsey Trapp,,F,1988,35,OR,Raw,S35-39,63.1,67.5,107.5,112.5,117.5,117.5,60,-62.5,-62.5,60,122.5,-132.5,-132.5,122.5,300,SBD,Yes
5,Marni Hallett,,F,1988,35,MD,Raw,S35-39,64.9,67.5,100,102.5,105,105,52.5,-55,,52.5,112.5,115,120,120,277.5,SBD,Yes
1,Ileana Guzman,,F,1986,37,CT,Raw,S35-39,73.8,75,127.5,130,135,135,67.5,-70,-70,67.5,142.5,147.5,152.5,152.5,355,SBD,Yes
G,Teddy Lynne Atud,,F,1988,35,NV,Raw,Guest,64.1,67.5,65,75,-82.5,75,42.5,47.5,-50,47.5,100,110,-122.5,110,232.5,SBD,Yes
DQ,Mitzi Hernandez,,F,2000,23,AZ,Raw,Guest,62,67.5,-77.5,-77.5,,,,,,,,,,,,SBD,Yes
G,Dakota Courtright,,F,2009,14,CA,Raw,Guest,75.4,82.5,135,142.5,150,150,62.5,67.5,70,70,150,165,-170,165,385,SBD,Yes
1,Ashley Wisner,,F,1997,25,MD,Raw,Open,51.1,52,,,,,-72.5,72.5,-75,72.5,,,,,72.5,B,Yes
1,Kristin Estes,,F,1988,34,ID,Raw,Open,55.2,56,,,,,90,-95,-95,90,,,,,90,B,Yes
1,Luna Bruno,,F,1990,32,OR,Raw,Open,66.6,67.5,,,,,102.5,105,-110,105,,,,,105,B,Yes
1,Ashley M Corey,,F,1990,32,MI,Raw,Open,71.9,75,,,,,105,110,-120,110,,,,,110,B,Yes
1,Sarah Kahan,,F,1992,31,PA,Raw,Open,55.7,56,,,,,65,-67.5,-67.5,65,150,-155,-157.5,150,215,BD,Yes
1,Molly Hendryx,,F,1983,40,OR,Raw,Masters 40-44,55.7,56,,,,,,,,,182.5,190,-195,190,190,D,Yes
1,Ashley Wisner,,F,1997,25,MD,Raw,Open,51.1,52,,,,,,,,,180,-182.5,183,183,183,D,Yes
1,Sarah Kahan,,F,1992,31,PA,Raw,Open,55.7,56,,,,,,,,,150,-155,-157.5,150,150,D,Yes
1,Kendra Farber,,F,1987,36,OR,Raw,Open,66.7,67.5,,,,,,,,,225,-235,-235,225,225,D,Yes
2,Olivia Crusoe,,F,1993,30,WA,Raw,Open,65.8,67.5,,,,,,,,,187.5,197.5,200,200,200,D,Yes
1,Kelly Barron,,F,1971,52,SC,Wraps,Masters 50-54,55.7,56,95,100,-107.5,100,60,62.5,-65,62.5,112.5,117.5,-120,117.5,280,SBD,Yes
1,Carol Hemersbach,,F,1963,60,AZ,Wraps,Masters 60-64,59,60,70,80,85,85,45,50,52.5,52.5,112.5,122.5,137.5,137.5,275,SBD,Yes
1,London Rhinehart,,M,2009,14,NV,Raw,J13-15,59.8,60,80,90,-100,90,50,55,60,60,105,132.5,145,145,295,SBD,Yes
1,Mateo Mackiewicz,,M,2007,16,CA,Raw,J16-17,64.8,67.5,145,160,170,170,100,107.5,-115,107.5,177.5,192.5,-200,192.5,470,SBD,Yes
2,Blaine Sowell,,M,2007,16,TX,Raw,J16-17,65.05,67.5,140,150,-160,150,75,82.5,-87.5,82.5,182.5,-195,-202.5,182.5,415,SBD,Yes
1,Dominic Slomski,,M,2004,19,OH,Raw,J18-19,67.4,67.5,137.5,152.5,-162.5,152.5,92.5,102.5,-105,102.5,195,215,-227.5,215,470,SBD,Yes
1,Jaden Martenson,,M,2003,20,WA,Raw,Juniors 20-23,74.6,75,220,230,235,235,137.5,145,-147.5,145,222.5,232.5,240,240,620,SBD,Yes
2,Moises Galvan,,M,2001,22,NJ,Raw,Juniors 20-23,74.1,75,172.5,182.5,187.5,187.5,127.5,-130,-130,127.5,217.5,227.5,-232.5,227.5,542.5,SBD,Yes
1,Sean Williams #1,,M,1971,51,NV,Raw,Masters 50-54,73.5,75,132.5,142.5,147.5,147.5,137.5,142.5,143,143,180,192.5,-195,192.5,483,SBD,Yes
1,Seth Solis,,M,1996,27,AZ,Raw,Open,59.2,60,192.5,202.5,205,205,125,132.5,140,140,192.5,202.5,-212.5,202.5,547.5,SBD,Yes
DQ,Justin Bonaparte,,M,1995,27,NV,Raw,Open,59.5,60,165,175,182.5,182.5,-130,-130,-130,,-230,230,,230,,SBD,Yes
1,Grant Stark,,M,1998,25,MO,Raw,Open,65.5,67.5,162.5,-175,-175,162.5,-120,120,-125,120,207.5,-220,-220,207.5,490,SBD,Yes
2,Dominic Slomski,,M,2004,19,OH,Raw,Open,67.4,67.5,137.5,152.5,-162.5,152.5,92.5,102.5,-105,102.5,195,215,-227.5,215,470,SBD,Yes
1,Tevin Pham,,M,1996,27,IA,Raw,Open,73.8,75,217.5,227.5,237.5,237.5,147.5,152.5,160,160,240,250,-255,250,647.5,SBD,Yes
2,Rex Labis Jr,,M,1995,28,IL,Raw,Open,74.8,75,195,205,215,215,135,142.5,145,145,240,255,265,265,625,SBD,Yes
3,Daniel Greenberg,,M,1997,26,FL,Raw,Open,72.15,75,160,185,200,200,127.5,145,165,165,207.5,235,-247.5,235,600,SBD,Yes
4,Nicholas Moskowitz,,M,1994,29,OH,Raw,Open,72.7,75,180,-187.5,187.5,187.5,155,-162.5,,155,220,230,-237.5,230,572.5,SBD,Yes
5,Brent Jones #1,,M,1996,27,VA,Raw,Open,70.5,75,185,197.5,205,205,112.5,117.5,120,120,-225,225,237.5,237.5,562.5,SBD,Yes
6,Jonathan Lo,,M,1987,36,OR,Raw,Open,73.6,75,165,175,-182.5,175,87.5,90,-92.5,90,175,180,182.5,182.5,447.5,SBD,Yes
1,Michael Blair,,M,1986,37,FL,Raw,S35-39,72.6,75,162.5,175,-182.5,175,107.5,112.5,-120,112.5,182.5,187.5,200,200,487.5,SBD,Yes
2,Jonathan Lo,,M,1987,36,OR,Raw,S35-39,73.6,75,165,175,-182.5,175,87.5,90,-92.5,90,175,180,182.5,182.5,447.5,SBD,Yes
1,Sean Williams #1,,M,1971,51,NV,Raw,Masters 50-54,73.5,75,,,,,137.5,142.5,143,143,,,,,143,B,Yes
1,Nicholas Moskowitz,,M,1994,29,OH,Raw,Open,72.7,75,,,,,155,-162.5,,155,,,,,155,B,Yes
1,Michael Blair,,M,1986,37,FL,Raw,S35-39,72.6,75,,,,,107.5,112.5,-120,112.5,,,,,112.5,B,Yes
1,Mateo Mackiewicz,,M,2007,16,CA,Raw,J16-17,64.8,67.5,,,,,100,107.5,-115,107.5,177.5,192.5,-200,192.5,300,BD,Yes
1,Michael Blair,,M,1986,37,FL,Raw,S35-39,72.6,75,,,,,107.5,112.5,-120,112.5,182.5,187.5,200,200,312.5,BD,Yes
1,Justin Bonaparte,,M,1995,27,NV,Raw,Open,59.5,60,,,,,,,,,-230,230,,230,230,D,Yes
1,Michael Blair,,M,1986,37,FL,Raw,S35-39,72.6,75,,,,,,,,,182.5,187.5,200,200,200,D,Yes
1,Alexander Freyer,,M,1984,39,PA,Wraps,Open,72.3,75,230,-242.5,-242.5,230,132.5,135,-137.5,135,230,240,242.5,242.5,607.5,SBD,Yes
1,Alexander Freyer,,M,1984,39,PA,Wraps,S35-39,72.3,75,230,-242.5,-242.5,230,132.5,135,-137.5,135,230,240,242.5,242.5,607.5,SBD,Yes
1,Amanda Colon,,F,2000,22,NY,Raw,Juniors 20-23,86.6,90,110,120,127.5,127.5,62.5,67.5,70,70,145,-152.5,157.5,157.5,355,SBD,Yes
1,Ariel Risinger,,F,1981,42,NJ,Raw,Masters 40-44,80.1,82.5,152.5,160,172.5,172.5,82.5,87.5,92.5,92.5,185,-192.5,-195,185,450,SBD,Yes
2,Lis Saunders,,F,1979,44,GA,Raw,Masters 40-44,81.2,82.5,135,-142.5,142.5,142.5,67.5,72.5,75,75,157.5,167.5,177.5,177.5,395,SBD,Yes
3,Rachael Ballas,,F,1982,40,OR,Raw,Masters 40-44,77.5,82.5,117.5,122.5,130,130,75,80,85,85,130,137.5,147.5,147.5,362.5,SBD,Yes
1,Melanie Nguyen,,F,1992,31,CA,Raw,Open,81.5,82.5,165,170,175,175,85,90,95,95,180,187.5,197.5,197.5,467.5,SBD,Yes
2,Nadia Moe,,F,1986,37,AZ,Raw,Open,81.3,82.5,-152.5,152.5,170,170,80,85,-90,85,185,205,-212.5,205,460,SBD,Yes
3,Jessica Alderete,,F,1984,38,NM,Raw,Open,76.8,82.5,152.5,160,-170,160,95,100,102.5,102.5,182.5,195,-200,195,457.5,SBD,Yes
4,Ariel Risinger,,F,1981,42,NJ,Raw,Open,80.1,82.5,152.5,160,172.5,172.5,82.5,87.5,92.5,92.5,185,-192.5,-195,185,450,SBD,Yes
5,Abigail Olson,,F,1999,24,ND,Raw,Open,81.8,82.5,152.5,165,170,170,85.5,90,-95,90,170.5,-180,-185,170.5,430.5,SBD,Yes
6,Casey Lynch,,F,1988,35,OR,Raw,Open,77.7,82.5,130,137.5,142.5,142.5,77.5,82.5,85,85,172.5,182.5,-185,182.5,410,SBD,Yes
7,Lis Saunders,,F,1979,44,GA,Raw,Open,81.2,82.5,135,-142.5,142.5,142.5,67.5,72.5,75,75,157.5,167.5,177.5,177.5,395,SBD,Yes
8,Claire Raleigh,,F,1984,39,WA,Raw,Open,76.2,82.5,125,-130,-130,125,67.5,-70,-70,67.5,170,177.5,-183,177.5,370,SBD,Yes
9,Rachael Ballas,,F,1982,40,OR,Raw,Open,77.5,82.5,117.5,122.5,130,130,75,80,85,85,130,137.5,147.5,147.5,362.5,SBD,Yes
1,Savanna Buskness,,F,1996,27,ND,Raw,Open,83.3,90,147.5,155,160,160,87.5,92.5,-95,92.5,177.5,182.5,-187.5,182.5,435,SBD,Yes
2,Rainu Ittycheriah,,F,1990,33,TN,Raw,Open,86.1,90,152.5,-175,182.5,182.5,60,70,-80,70,147.5,170,-180,170,422.5,SBD,Yes
3,Julianna Peters,,F,1997,26,OR,Raw,Open,88.5,90,-135,137.5,-142.5,137.5,62.5,65,67.5,67.5,140,147.5,155,155,360,SBD,Yes
4,Amanda Colon,,F,2000,22,NY,Raw,Open,86.6,90,110,120,127.5,127.5,62.5,67.5,70,70,145,-152.5,157.5,157.5,355,SBD,Yes
5,Marissa Robertson,,F,1992,31,MA,Raw,Open,89.9,90,-130,130,-137.5,130,72.5,-77.5,-77.5,72.5,130,137.5,140,140,342.5,SBD,Yes
6,Caitlin Cloud,,F,1995,28,WA,Raw,Open,89,90,105,115,-122.5,115,62.5,67.5,70,70,142.5,-155,155,155,340,SBD,Yes
7,Austin Bell #3,,F,1986,37,OR,Raw,Open,89.5,90,90,95,100,100,60,65,-70,65,125,130,137.5,137.5,302.5,SBD,Yes
1,Nadia Moe,,F,1986,37,AZ,Raw,S35-39,81.3,82.5,-152.5,152.5,170,170,80,85,-90,85,185,205,-212.5,205,460,SBD,Yes
2,Jessica Alderete,,F,1984,38,NM,Raw,S35-39,76.8,82.5,152.5,160,-170,160,95,100,102.5,102.5,182.5,195,-200,195,457.5,SBD,Yes
3,Casey Lynch,,F,1988,35,OR,Raw,S35-39,77.7,82.5,130,137.5,142.5,142.5,77.5,82.5,85,85,172.5,182.5,-185,182.5,410,SBD,Yes
4,Claire Raleigh,,F,1984,39,WA,Raw,S35-39,76.2,82.5,125,-130,-130,125,67.5,-70,-70,67.5,170,177.5,-183,177.5,370,SBD,Yes
1,Austin Bell #3,,F,1986,37,OR,Raw,S35-39,89.5,90,90,95,100,100,60,65,-70,65,125,130,137.5,137.5,302.5,SBD,Yes
G,Karly Rodriguez,,F,1998,25,AZ,Raw,Guest,85,90,90,100,110,110,50,57.5,60,60,90,102.5,115,115,285,SBD,Yes
G,Britt Holloway,,F,1994,29,OR,Raw,Guest,91.6,100,202.5,215,-220,215,107.5,-115,-115,107.5,200,-210,215,215,537.5,SBD,Yes
G,Pricila Orduno,,F,2001,21,OR,Raw,Guest,96.9,100,142.5,150,157.5,157.5,62.5,67.5,70,70,140,147.5,155,155,382.5,SBD,Yes
G,Crystal Gonzalez,,F,1989,33,CA,Raw,Guest,92.4,100,135,145,155,155,70,-75,-80,70,150,-160,-162.5,150,375,SBD,Yes
G,Rachel Overstreet,,F,1994,29,OR,Raw,Guest,105.7,110,107.5,-115,115,115,72.5,75,-77.5,75,130,137.5,142.5,142.5,332.5,SBD,Yes
1,Lis Saunders,,F,1979,44,GA,Raw,Masters 40-44,81.2,82.5,,,,,,,,,157.5,167.5,177.5,177.5,177.5,D,Yes
1,Claire Raleigh,,F,1984,39,WA,Raw,Open,76.2,82.5,,,,,,,,,170,177.5,-183,177.5,177.5,D,Yes
2,Lis Saunders,,F,1979,44,GA,Raw,Open,81.2,82.5,,,,,,,,,157.5,167.5,177.5,177.5,177.5,D,Yes
1,Claire Raleigh,,F,1984,39,WA,Raw,S35-39,76.2,82.5,,,,,,,,,170,177.5,-183,177.5,177.5,D,Yes
1,Mathew Lara,,M,2004,19,CA,Raw,J18-19,88.4,90,230,240,-245,240,125,132.5,140,140,235,245,-260,245,625,SBD,Yes
1,Ethan Memming,,M,2001,22,MO,Raw,Juniors 20-23,81.9,82.5,212.5,-222.5,222.5,222.5,125,135,-140,135,260,272.5,-282.5,272.5,630,SBD,Yes
2,Antonio Lopez,,M,2000,23,CA,Raw,Juniors 20-23,81.3,82.5,-190,190,,190,102.5,107.5,112.5,112.5,225,230,-232.5,230,532.5,SBD,Yes
3,Kody Barron,,M,2000,22,ND,Raw,Juniors 20-23,80.3,82.5,157.5,167.5,175,175,90,-95,-95,90,185,197.5,205,205,470,SBD,Yes
1,Patrick Owens,,M,2002,21,KY,Raw,Juniors 20-23,87.5,90,235,255,-267.5,255,135,-142.5,-142.5,135,280,-302.5,-302.5,280,670,SBD,Yes
2,Nick Tomann,,M,2003,20,MN,Raw,Juniors 20-23,85,90,220,225,-240,225,122.5,130,135,135,227.5,237.5,242.5,242.5,602.5,SBD,Yes
DQ,Sean Marlowe,,M,1981,42,NC,Raw,Masters 40-44,89.7,90,-185,-185,-185,,115,122.5,-127.5,122.5,205,220,-252.5,220,,SBD,Yes
1,Dennis Garcia,,M,1978,45,AZ,Raw,Masters 45-49,89.41,90,165,-177.5,177.5,177.5,152.5,-165,-165,152.5,217.5,227.5,235,235,565,SBD,Yes
1,Mfon Akpan,,M,1973,50,NC,Raw,Masters 50-54,82.5,82.5,-130,130,-150,130,115,120,-125,120,-175,175,185,185,435,SBD,Yes
1,Daniel Breton,,M,1966,56,MA,Raw,Masters 55-59,88.3,90,187.5,195,205,205,112.5,117.5,122.5,122.5,227.5,237.5,245,245,572.5,SBD,Yes
1,Michael Lobb,,M,1954,69,OR,Raw,Masters 65-69,95.1,100,135,142.5,152.5,152.5,77.5,82.5,85,85,167.5,177.5,185,185,422.5,SBD,Yes
1,Sean Wagner,,M,1993,30,IL,Raw,Open,81.8,82.5,-210,210,-222.5,210,130,137.5,-142.5,137.5,260,280,-295,280,627.5,SBD,Yes
2,Ardell Spinder,,M,1995,28,OR,Raw,Open,82.2,82.5,202.5,215,225,225,132.5,137.5,142.5,142.5,245,260,-272.5,260,627.5,SBD,Yes
3,John Lang,,M,1997,26,CA,Raw,Open,80.9,82.5,215,230,-245,230,-140,140,145,145,235,-245,245,245,620,SBD,Yes
4,John MacKinnon,,M,1991,32,OR,Raw,Open,81.7,82.5,200,220,-225,220,122.5,130,135,135,220,240,247.5,247.5,602.5,SBD,Yes
5,Ryan Staelgraeve,,M,1994,28,IL,Raw,Open,78.2,82.5,-175,185,-192.5,185,105,112.5,120,120,-255,275,290,290,595,SBD,Yes
6,Barada Moncravie,,M,1993,30,CA,Raw,Open,81,82.5,180,195,205,205,135,-145,-145,135,222.5,235,245,245,585,SBD,Yes
7,Brian Alimbuyao,,M,1988,35,UT,Raw,Open,82,82.5,200,215,-227.5,215,115,-125,125,125,245,-265,-265,245,585,SBD,Yes
8,Mark Minia,,M,1993,29,NV,Raw,Open,80.6,82.5,-177.5,177.5,190,190,110,115,122.5,122.5,205,220,227.5,227.5,540,SBD,Yes
9,Nicholas Hancock,,M,1992,31,CA,Raw,Open,79,82.5,170,177.5,187.5,187.5,90,100,105,105,175,185,-197.5,185,477.5,SBD,Yes
1,Parker Tims,,M,1995,28,KS,Raw,Open,88.1,90,247.5,260,-275,260,165,-172.5,-172.5,165,265,280,-287.5,280,705,SBD,Yes
2,Wilson Thammavongsa,,M,1991,32,CA,Raw,Open,88.2,90,185,195,205,205,130,135,137.5,137.5,277.5,295,305,305,647.5,SBD,Yes
3,Dennis Garcia,,M,1978,45,AZ,Raw,Open,89.41,90,165,-177.5,177.5,177.5,152.5,-165,-165,152.5,217.5,227.5,235,235,565,SBD,Yes
5,Travis Tolstedt,,M,1989,34,OR,Raw,Open,97,100,220,230,-240,230,150,157.5,162.5,162.5,227.5,242.5,252.5,252.5,645,SBD,Yes
1,Brian Alimbuyao,,M,1988,35,UT,Raw,S35-39,82,82.5,200,215,-227.5,215,115,-125,125,125,245,-265,-265,245,585,SBD,Yes
1,Nicholas Tiller,,M,1987,36,OR,Raw,S35-39,86.9,90,170,182.5,-187.5,182.5,115,122.5,127.5,127.5,175,185,195,195,505,SBD,Yes
1,Joe Hays,,M,1960,63,MN,Raw,Masters 60-64,81.2,82.5,,,,,95,100,107.5,107.5,,,,,107.5,B,Yes
1,Sean Marlowe,,M,1981,42,NC,Raw,Masters 40-44,89.7,90,,,,,115,122.5,-127.5,122.5,205,220,-252.5,220,342.5,BD,Yes
1,Antonio Lopez,,M,2000,23,CA,Raw,Juniors 20-23,81.3,82.5,,,,,,,,,225,230,-232.5,230,230,D,Yes
1,Sean Marlowe,,M,1981,42,NC,Raw,Masters 40-44,89.7,90,,,,,,,,,205,220,-252.5,220,220,D,Yes
1,Joe Hays,,M,1960,63,MN,Raw,Masters 60-64,81.2,82.5,,,,,,,,,220,,,220,220,D,Yes
1,Joe Hays,,M,1960,63,MN,Raw,Open,81.2,82.5,,,,,,,,,220,,,220,220,D,Yes
1,Daniel Breton,,M,1966,56,MA,Raw,Open,88.3,90,,,,,,,,,227.5,237.5,245,245,245,D,Yes
1,Joe Hays,,M,1960,63,MN,Wraps,Masters 60-64,81.2,82.5,150,155,160,160,95,100,107.5,107.5,220,,,220,487.5,SBD,Yes
1,Timothy Brown #2,,M,1993,30,MD,Wraps,Open,81.8,82.5,227.5,242.5,-252.5,242.5,150,157.5,165,165,225,242.5,-252.5,242.5,650,SBD,Yes
2,Logan Lachowitzer,,M,1998,25,PA,Wraps,Open,80.4,82.5,220,-230,230,230,117.5,122.5,-125,122.5,222.5,230,237.5,237.5,590,SBD,Yes
3,Joe Hays,,M,1960,63,MN,Wraps,Open,81.2,82.5,150,155,160,160,95,100,107.5,107.5,220,,,220,487.5,SBD,Yes
1,Jamaris Davis,,M,1997,25,NC,Wraps,Open,88,90,285,300,-305,300,180,192.5,-197.5,192.5,305,325,330,330,822.5,SBD,Yes
1,Hailey Baiz,,F,2004,19,CA,Raw,J18-19,95.5,100,70,82.5,102.5,102.5,50,57.5,62.5,62.5,80,102.5,117.5,117.5,282.5,SBD,Yes
1,Ashley Dummitt,,F,2001,22,MD,Raw,Juniors 20-23,97.8,100,135,142.5,-150,142.5,70,-75,-75,70,140,-152.5,-152.5,140,352.5,SBD,Yes
1,Daisy Valdez,,F,2002,21,CA,Raw,Juniors 20-23,105.1,110,140,147.5,155,155,-62.5,67.5,75,75,172.5,-185,-185,172.5,402.5,SBD,Yes
1,Amanda Carroll,,F,2000,22,GA,Raw,Juniors 20-23,120.3,125,-170,170,185,185,70,77.5,-82.5,77.5,147.5,-165,165,165,427.5,SBD,Yes
1,Shamaine McVay,,F,1981,41,MI,Raw,Masters 40-44,96.3,100,160,-180,180,180,85,-100,-100,85,187.5,202.5,-205,202.5,467.5,SBD,Yes
1,Katie Andes,,F,1980,42,MO,Raw,Masters 40-44,108.1,110,142.5,152.5,-165,152.5,97.5,107.5,-110,107.5,162.5,172.5,-182.5,172.5,432.5,SBD,Yes
1,Nicole Amiotte,,F,1990,33,AZ,Raw,Open,98.1,100,175,185,190,190,112.5,117.5,122.5,122.5,180,185,190,190,502.5,SBD,Yes
2,Shamaine McVay,,F,1981,41,MI,Raw,Open,96.3,100,160,-180,180,180,85,-100,-100,85,187.5,202.5,-205,202.5,467.5,SBD,Yes
3,Chanti Lyons,,F,1987,36,VA,Raw,Open,92.9,100,120,132.5,137.5,137.5,75,80,82.5,82.5,142.5,147.5,155,155,375,SBD,Yes
4,Kimberly Keen,,F,1992,31,NJ,Raw,Open,99.9,100,102.5,112.5,-127.5,112.5,67.5,75,-82.5,75,137.5,147.5,155,155,342.5,SBD,Yes
1,Hailey Tucker,,F,1997,25,CT,Raw,Open,107.7,110,215,-227.5,227.5,227.5,-105,105,-110,105,190,205,-210,205,537.5,SBD,Yes
2,Katie Andes,,F,1980,42,MO,Raw,Open,108.1,110,142.5,152.5,-165,152.5,97.5,107.5,-110,107.5,162.5,172.5,-182.5,172.5,432.5,SBD,Yes
3,Rebecca Rouda,,F,1994,28,OR,Raw,Open,108.5,110,147.5,155,160,160,80,82.5,85,85,165,175,182.5,182.5,427.5,SBD,Yes
1,Francesca Nicoletti,,F,1985,38,NV,Raw,Open,120.6,125,-210,-210,210,210,107.5,115,-120,115,175,187.5,-202.5,187.5,512.5,SBD,Yes
2,Sarah Ferguson,,F,1992,31,PA,Raw,Open,123.8,125,170,182.5,190,190,82.5,92.5,-97.5,92.5,160,172.5,177.5,177.5,460,SBD,Yes
3,Mary Wakefield,,F,1989,34,,Raw,Open,124.9,125,170,177.5,-182.5,177.5,90,95,-97.5,95,175,182.5,187.5,187.5,460,SBD,Yes
4,Sara Bustamante,,F,1993,30,NM,Raw,Open,124.9,125,145,155,-162.5,155,77.5,82.5,87.5,87.5,160,172.5,183,183,425.5,SBD,Yes
DQ,Joni Fleck,,F,1989,34,IN,Raw,Open,118.1,125,-147.5,-147.5,-147.5,,65,67.5,-70,67.5,167.5,172.5,-177.5,172.5,,SBD,Yes
1,Madison Stieb,,F,1993,30,NV,Raw,Open,187.2,140+,62.5,82.5,-95,82.5,62.5,75,-77.5,75,102.5,127.5,-137.5,127.5,285,SBD,Yes
1,Chanti Lyons,,F,1987,36,VA,Raw,S35-39,92.9,100,120,132.5,137.5,137.5,75,80,82.5,82.5,142.5,147.5,155,155,375,SBD,Yes
2,Katherine Petak,,F,1984,39,OR,Raw,S35-39,99.5,100,112.5,120,125,125,67.5,70,72.5,72.5,132.5,140,145,145,342.5,SBD,Yes
1,Francesca Nicoletti,,F,1985,38,NV,Raw,S35-39,120.6,125,-210,-210,210,210,107.5,115,-120,115,175,187.5,-202.5,187.5,512.5,SBD,Yes
1,Natalie Uy,,F,1983,40,AZ,Wraps,Masters 40-44,94.5,100,142.5,-160,-175,142.5,52.5,60,65,65,152.5,157.5,-163,157.5,365,SBD,Yes
1,Natalie Uy,,F,1983,40,AZ,Wraps,Open,94.5,100,142.5,-160,-175,142.5,52.5,60,65,65,152.5,157.5,-163,157.5,365,SBD,Yes
1,Denise Castro,,F,1996,27,CA,Wraps,Open,123.2,125,200,-215,227.5,227.5,72.5,80,82.5,82.5,190,202.5,-217.5,202.5,512.5,SBD,Yes
1,Dylan Kraus,,M,2003,19,MN,Raw,J18-19,98.6,100,230,247.5,-260,247.5,182.5,195,-205,195,277.5,300,-305,300,742.5,SBD,Yes
1,Wyatt Coppini,,M,2000,23,NV,Raw,Juniors 20-23,97.2,100,245,260,265,265,165,175,-182.5,175,285,300,-305,300,740,SBD,Yes
2,Zach Helton,,M,2000,23,TX,Raw,Juniors 20-23,98.1,100,255,265,-272.5,265,-137.5,-137.5,137.5,137.5,-330,330,-340,330,732.5,SBD,Yes
3,Arjun Aujla,,M,2002,21,MI,Raw,Juniors 20-23,96.9,100,205,217.5,225,225,127.5,-135,-135,127.5,-260,272.5,285,285,637.5,SBD,Yes
1,Jack Pacek,,M,2003,20,OH,Raw,Juniors 20-23,103.1,110,265,285,-295,285,165,170,-175,170,260,275,280,280,735,SBD,Yes
2,Lance Carr,,M,2002,21,NV,Raw,Juniors 20-23,108.7,110,207.5,222.5,-232.5,222.5,125,-127.5,-127.5,125,227.5,250,-262.5,250,597.5,SBD,Yes
1,Jordan Deaver,,M,2003,20,,Raw,Juniors 20-23,111.5,125,282.5,300,307.5,307.5,175,190,-192.5,190,290,305,-320,305,802.5,SBD,Yes
1,John Starr #1,,M,1980,43,CA,Raw,Masters 40-44,91.3,100,167.5,175,182.5,182.5,-130,130,132.5,132.5,220,230,237.5,237.5,552.5,SBD,Yes
2,Tim Fitzgerald,,M,1979,43,NV,Raw,Masters 40-44,97.9,100,165,195.5,-197.5,195.5,125,-140,-140,125,185,222.5,230,230,550.5,SBD,Yes
1,Michael Andrieu,,M,1981,42,NJ,Raw,Masters 40-44,137.7,140,260,267.5,285,285,160,-170,-170,160,285,292.5,300,300,745,SBD,Yes
1,Zach Helton,,M,2000,23,TX,Raw,Open,98.1,100,255,265,-272.5,265,-137.5,-137.5,137.5,137.5,-330,330,-340,330,732.5,SBD,Yes
2,Phillip Waltzer,,M,1993,29,FL,Raw,Open,97.7,100,265,275,-280,275,182.5,-190,-190,182.5,-260,260,272.5,272.5,730,SBD,Yes
3,Garrett Skurnit,,M,1993,30,MI,Raw,Open,96,100,227.5,235,242.5,242.5,170,175,180,180,272.5,282.5,292.5,292.5,715,SBD,Yes
4,Cameron Absher,,M,1995,28,CA,Raw,Open,98,100,230,250,272.5,272.5,142.5,160,175,175,242.5,260,-280,260,707.5,SBD,Yes
6,Tim Taylor #6,,M,1992,30,MI,Raw,Open,98.6,100,195,205,-215,205,117.5,-125,125,125,250,265,-272.5,265,595,SBD,Yes
1,Joshua Tomann,,M,1993,29,MN,Raw,Open,108.8,110,287.5,305,-317.5,305,167.5,177.5,-182.5,177.5,332.5,355,365,365,847.5,SBD,Yes
2,David Sugerik,,M,1984,39,OR,Raw,Open,102.4,110,275,290,302.5,302.5,162.5,-170,-170,162.5,272.5,287.5,300,300,765,SBD,Yes
3,Brandon Koval,,M,1995,27,AZ,Raw,Open,108.4,110,260,270,275,275,165,170,-180,170,270,-280.5,-280.5,270,715,SBD,Yes
4,John Hagedorn,,M,1989,34,ID,Raw,Open,107.4,110,190,-197.5,,190,182.5,-187.5,-187.5,182.5,230,-232.5,,230,602.5,SBD,Yes
5,Dalton Mullinax,,M,1991,32,KS,Raw,Open,108.6,110,202.5,217.5,222.5,222.5,125,-130,130,130,222.5,237.5,245,245,597.5,SBD,Yes
6,Algirdas Navickas,,M,1988,35,AZ,Raw,Open,109.3,110,192.5,205,-212.5,205,132.5,137.5,-142.5,137.5,232.5,242.5,-247.5,242.5,585,SBD,Yes
1,Chase Fairchild-Kenny,,M,1996,27,MD,Raw,Open,124.2,125,305,-322.5,322.5,322.5,182.5,192.5,-197.5,192.5,305,-320,-320,305,820,SBD,Yes
2,Ben Vering,,M,2000,23,UT,Raw,Open,118,125,-235,235,250,250,162.5,-172.5,-172.5,162.5,265,280,295,295,707.5,SBD,Yes
3,Jack Menzl,,M,1999,24,FL,Raw,Open,112.7,125,210,222.5,235,235,132.5,140,145,145,277.5,292.5,305,305,685,SBD,Yes
DQ,David Lopez #1,,M,1989,33,IL,Raw,Open,125,125,-267.5,-267.5,-267.5,,150,-157.5,,150,-280,,,,,SBD,Yes
1,Joseph Leach,,M,1990,33,NJ,Raw,Open,132.6,140,180,192.5,210,210,100,110,-122.5,110,195,212.5,-227.5,212.5,532.5,SBD,Yes
1,David Sugerik,,M,1984,39,OR,Raw,S35-39,102.4,110,275,290,302.5,302.5,162.5,-170,-170,162.5,272.5,287.5,300,300,765,SBD,Yes
2,Patrick Thomas #1,,M,1988,35,OR,Raw,S35-39,106.1,110,175,185,195,195,150,157.5,-162.5,157.5,227.5,240,255,255,607.5,SBD,Yes
3,Algirdas Navickas,,M,1988,35,AZ,Raw,S35-39,109.3,110,192.5,205,-212.5,205,132.5,137.5,-142.5,137.5,232.5,242.5,-247.5,242.5,585,SBD,Yes
DQ,Sean Reagan,,M,1977,46,CO,Raw,Guest,106.2,110,-210,-210,-210,,182.5,-190,-190,182.5,-250,250,-280,250,,SBD,Yes
G,Tavaris Smith,,M,1993,29,SC,Raw,Guest,116.6,125,267.5,-282.5,295,295,160,165,-170,165,280,-302.5,-302.5,280,740,SBD,Yes
DQ,Donovan G Greenlee,,M,1991,31,PA,Raw,Guest,146.1,140+,-270,270,275,275,155,-167.5,-167.5,155,-295,-295,-295,,,SBD,Yes
1,John Starr #1,,M,1980,43,CA,Raw,Masters 40-44,91.3,100,,,,,-130,130,132.5,132.5,,,,,132.5,B,Yes
1,John Hagedorn,,M,1989,34,ID,Raw,Open,107.4,110,,,,,182.5,-187.5,-187.5,182.5,,,,,182.5,B,Yes
1,John Starr #1,,M,1980,43,CA,Raw,Masters 40-44,91.3,100,,,,,,,,,220,230,237.5,237.5,237.5,D,Yes
DQ,Hunter J Agnew,,M,1998,24,NY,Wraps,Open,100,100,-270,270,-285,270,135,142.5,-150,142.5,-280,-300,-300,,,SBD,Yes
1,Luke Vonhollen,,M,2001,22,IA,Wraps,Open,123.1,125,-287.5,287.5,-312.5,287.5,137.5,147.5,,147.5,285,-305,-305,285,720,SBD,Yes
G,John-Patrick Rosney,,M,1996,27,CO,Wraps,Guest,141.9,140+,220,232.5,-237.5,232.5,135,145,-147.5,145,222.5,232.5,240,240,617.5,SBD,Yes
1,James Milliner,,M,1989,34,MD,Single-ply,Open,114.1,125,182.5,195,-200,195,142.5,152.5,-157.5,152.5,220,227.5,-235,227.5,575,SBD,Yes
G,Mike Hedlesky,,M,1985,38,MD,Single-ply,Guest,114,125,272.5,290,,290,182.5,-192.5,-192.5,182.5,305,-332.5,,305,777.5,SBD,Yes
1,James Milliner,,M,1989,34,MD,Single-ply,Open,114.1,125,,,,,142.5,152.5,-157.5,152.5,,,,,152.5,B,Yes
1,James Milliner,,M,1989,34,MD,Single-ply,Open,114.1,125,,,,,,,,,220,227.5,-235,227.5,227.5,D,Yes
