Place,Name,Sex,Event,Equipment,Division,WeightClassKg,BirthDate,Age,BodyweightKg,Bench1Kg,Bench2Kg,Bench3Kg,Bench4Kg,Best3BenchKg,Deadlift1Kg,Deadlift2Kg,Deadlift3Kg,Deadlift4Kg,Best3DeadliftKg,TotalKg
1,Tomislav Bitunjac,M,B,Raw,J,110,,23,109,205,220,-225,,220,,,,,,220
2,Rene Eerny,M,B,Raw,J,110,,23,101.2,170,180,-192.5,,180,,,,,,180
1,Mirko Poljak,M,B,Raw,J,140,,22,140,217.5,-227.5,-227.5,,217.5,,,,,,217.5
1,Luka Banić,M,B,Raw,O,90,,31,88,140,150,160,,160,,,,,,160
2,Saša Lazić,M,B,Raw,O,90,,30,88.8,125,130,135,,135,,,,,,135
1,Oláh Ákos,M,B,Raw,O,100,,30,99.6,210,220,225,,225,,,,,,225
2,Goran Šišmanovič,M,B,Raw,O,100,,38,97.7,202.5,-207.5,207.5,,207.5,,,,,,207.5
3,Szuder Károly,M,B,Raw,O,100,,32,96.7,197.5,202.5,-207.5,,202.5,,,,,,202.5
1,Vlastimil Kužel,M,B,Raw,O,110,,41,109.9,240,245,-250,,245,,,,,,245
2,Marijo Rukavina,M,B,Raw,O,110,,35,106,220,230,-235,,230,,,,,,230
1,Kristijan Matković,M,B,Raw,O,125,,27,111,190,200,205,,205,,,,,,205
2,Jan Křivka,M,B,Raw,O,125,,31,125,185,-192.5,192.5,,192.5,,,,,,192.5
1,Mirza Muratović,M,B,Raw,O,140+,,37,147,230,242.5,-250,,242.5,,,,,,242.5
1,Vlastimil Kužel,M,B,Raw,M1,110,,41,109.9,230,-240,-240,,230,,,,,,230
2,Simon Bizjak,M,B,Raw,M1,110,,40,109,215,222.5,-227.5,,222.5,,,,,,222.5
1,Norbert Hajas,M,B,Raw,M2,75,,48,73,150,-160,160,,160,,,,,,160
1,Mario Auer,M,B,Raw,M2,90,,46,83.5,150,160,-170,,160,,,,,,160
1,Marián Hudec,M,B,Raw,M2,110,,49,104,140,-145,-145,,140,,,,,,140
1,Saša Vujišić,M,B,Raw,M3,110,,52,108.5,182.5,-200,-200,,182.5,,,,,,182.5
1,Branko Suzić,M,B,Raw,M4,100,,55,99,175,182.5,-185,,182.5,,,,,,182.5
1,Csertek Istvan,M,B,Raw,M4,110,,55,108.7,120,130,135,,135,,,,,,135
1,Csaba Molnár,M,B,Raw,M4,125,,55,124.3,180,-185,-185,,180,,,,,,180
1,Eszenyi Istvan Geza,M,B,Raw,M5,110,,62,107.4,140,150,155,,155,,,,,,155
1,Erwin Trichlin,M,B,Raw,M9,67.5,,80,63.2,82.5,87.5,-90,,87.5,,,,,,87.5
1,Eliška Nehézová,F,B,Raw,T2,75,,17,70.2,50,55,-57.5,,55,,,,,,55
1,Maruša Bizjak Ferjan,F,B,Raw,J,82.5,,22,78,70,-75,-75,,70,,,,,,70
1,Jelena Marinković,F,B,Raw,O,75,,36,72,80,-85,-85,,80,,,,,,80
1,Tatiana Magulová,F,B,Raw,O,82.5,,38,75.8,85,90,95,,95,,,,,,95
1,Moonika Aus,F,B,Raw,M2,60,,48,59.2,45,50,52.5,,52.5,,,,,,52.5
1,Simon Bizjak,M,B,Multi-ply,M1,110,,40,109,250,-265,-270,,250,,,,,,250
2,Miloš Ćećanović,M,B,Multi-ply,M1,110,,41,104.5,230,240,-250,,240,,,,,,240
1,Siegfrid Kogler,M,B,Multi-ply,M4,75,,55,73.6,125,130,-135,,130,,,,,,130
1,Csaba Molnár,M,B,Multi-ply,M4,125,,55,124.3,220,-240,-240,,220,,,,,,220
1,Erwin Trichlin,M,B,Multi-ply,M9,67.5,,80,63.2,90,-95,95,-100,95,,,,,,95
1,Adriano Alić,M,D,Raw,T3,82.5,,18,80,,,,,,210,230,-250,,230,230
1,Oliver Kurek,M,D,Raw,J,75,,20,75,,,,,,260,270,-280,,270,270
1,René Černý,M,D,Raw,J,110,,23,101.2,,,,,,280,-300,-300,,280,280
1,Luka Udiljak,M,D,Raw,J,140+,,22,143.5,,,,,,360,385,-400,,385,385
1,Danijel Parac,M,D,Raw,O,67.5,,25,67.4,,,,,,200,-220,220,,220,220
2,Ljupko Tur,M,D,Raw,O,67.5,,36,61,,,,,,150,160,165,,165,165
1,Luka Banić,M,D,Raw,O,90,,31,89.5,,,,,,240,250,-260,,250,250
2,Saša Lazić,M,D,Raw,O,90,,30,89,,,,,,210,217.5,220,,220,220
1,Kristijan Matković,M,D,Raw,O,110,,27,109,,,,,,292.5,313,320,,320,320
2,Ivan Kurobasa,M,D,Raw,O,110,,29,109.5,,,,,,310,-320,,,310,310
1,Árpád Tóth,M,D,Raw,O,125,,33,111.2,,,,,,255,260,-262.5,,260,260
1,Vjekoslav Karakaš,M,D,Raw,M2,67.5,,49,64.5,,,,,,150,160,165,,165,165
1,Marián Hudec,M,D,Raw,M2,110,,49,103.9,,,,,,235,245,-250,,245,245
1,Norbert Hablicsek,M,D,Raw,M2,125,,45,114,,,,,,230,,,,230,230
1,Tibor Varga,M,D,Raw,M3,125,,53,119.4,,,,,,200,210,,,210,210
1,Jelena Marinković,F,D,Raw,O,75,,36,72,,,,,,165,170,175,,175,175
1,Anna Szlávik,F,D,Raw,M2,90,,46,84.6,,,,,,120,130,-137.5,,130,130
1,Huba Hablicsek,M,D,Multi-ply,J,60,,21,60,,,,,,155,170,-180,,170,170
1,Oliver Kurek,M,D,Multi-ply,J,75,,20,75,,,,,,260,275,-280,,275,275
1,Péter Pintér,M,D,Multi-ply,O,125,,34,116,,,,,,300,-315,-315,,300,300
1,Norbert Hablicsek,M,D,Multi-ply,M2,125,,45,114,,,,,,277.5,297.5,310,,310,310
2,Ernő Eck,M,D,Multi-ply,M2,125,,47,115,,,,,,275,295,307.5,,307.5,307.5
1,Radoslav Radusinović,M,D,Multi-ply,M3,110,,51,109,,,,,,290,300,-305,,300,300
1,Mónika Bazsó,F,D,Multi-ply,M2,75,,45,73.6,,,,,,185,197.5,205,,205,205
